%YAML 1.1
%TAG !u! tag:unity3d.com,2011:
--- !u!1045 &1
EditorBuildSettings:
  m_ObjectHideFlags: 0
  serializedVersion: 2
  m_Scenes:
  - enabled: 0
    path: 
    guid: eaa39fcf8fadb8141b72a151de9ccbe5
  - enabled: 1
    path: Assets/Scenes/StartMenu.unity
    guid: f59b430dcee78404481da5940d5231ba
  - enabled: 1
    path: Assets/Scenes/ModeSelect.unity
    guid: 311ac9576f79aa949b298ac43805b2fa
  - enabled: 1
    path: Assets/Scenes/HowToSpeed.unity
    guid: 5d6ab1b70cd1b2e438230199ee1b4a39
  - enabled: 1
    path: Assets/Scenes/HowToCalm.unity
    guid: e29d61ab69779364d9a4adc356f9637c
  - enabled: 1
    path: Assets/Scenes/MainSpeed.unity
    guid: 61ad83a69395cfd43894391202ba4d8e
  - enabled: 1
    path: Assets/Scenes/LevelSelect.unity
    guid: cb7cd5045e2e198499669b4d44a6faa7
  - enabled: 1
    path: Assets/Scenes/Main.unity
    guid: 0add12f4083df994db1c55e47532feb2
  - enabled: 1
    path: Assets/Scenes/Level1/Level1Image1.unity
    guid: 036716aa357321f42866ed82484898e8
  - enabled: 1
    path: Assets/Scenes/Level1/Level1Image2.unity
    guid: 0a9b822a13d63ce4aa2e0bd665832149
  - enabled: 1
    path: Assets/Scenes/Level1/Level1Image3.unity
    guid: 40bb617d66566e24f94376a90179af56
  - enabled: 1
    path: Assets/Scenes/Level1/Level1Image4.unity
    guid: ee0e28a0eadfa0a4d9805132fdf4a738
  - enabled: 1
    path: Assets/Scenes/Level1/Level1Image5.unity
    guid: c4b183d581c867940b06899fcb6679a7
  - enabled: 1
    path: Assets/Scenes/Level1/Level1Image6.unity
    guid: 0dbd96d63752b49428f72a49ca361046
  - enabled: 1
    path: Assets/Scenes/MainSpeed 1.unity
    guid: 191a81e9665307f4fb7b39ec94d02c6e
  - enabled: 1
    path: Assets/Scenes/MainSpeed 2.unity
    guid: a52a435c4fdf500479f68de30be99815
